Start crossvalidation
/home/mousebaiker/semantic-segmentation/python/evaluation_tool.py:32: RuntimeWarning: invalid value encountered in true_divide
  recall = matrix.diagonal()/(np.sum(matrix, axis=0))
+----------+----------+----------+----------+----------+----------+----------+
|          | imp_surf | building | low_veg  |   tree   |   car    |background|
+----------+----------+----------+----------+----------+----------+----------+
| imp_surf |  0.714   |  0.102   |  0.148   |  0.0252  |  0.0111  |   0.0    |
| building |  0.0944  |  0.807   |  0.0838  | 0.00678  | 0.00814  |   0.0    |
| low_veg  |  0.041   |  0.0215  |  0.761   |  0.176   | 0.000563 |   0.0    |
|   tree   |  0.0138  |  0.0017  |  0.319   |  0.665   | 0.000176 |   0.0    |
|   car    |  0.156   |  0.256   |  0.107   | 0.00763  |  0.473   |   0.0    |
|background|  0.688   |  0.104   |  0.188   |   0.0    |  0.0208  |   0.0    |
+----------+----------+----------+----------+----------+----------+----------+
|Precision |  0.714   |  0.807   |  0.761   |  0.665   |  0.473   |   0.0    |
+----------+----------+----------+----------+----------+----------+----------+
|  Recall  |  0.821   |  0.868   |  0.566   |  0.772   |  0.157   |   nan    |
+----------+----------+----------+----------+----------+----------+----------+
| F1 score |  0.764   |  0.836   |  0.649   |  0.715   |  0.236   |   nan    |
+----------+----------+----------+----------+----------+----------+----------+
Overall accuracy: 0.735291910551
One done
/home/mousebaiker/semantic-segmentation/python/evaluation_tool.py:32: RuntimeWarning: invalid value encountered in true_divide
  recall = matrix.diagonal()/(np.sum(matrix, axis=0))
+----------+----------+----------+----------+----------+----------+----------+
|          | imp_surf | building | low_veg  |   tree   |   car    |background|
+----------+----------+----------+----------+----------+----------+----------+
| imp_surf |  0.713   |  0.103   |  0.148   |  0.0251  |  0.0115  |   0.0    |
| building |  0.0935  |  0.806   |  0.0856  |  0.0068  | 0.00844  |   0.0    |
| low_veg  |  0.042   |  0.021   |  0.763   |  0.173   | 0.000506 |   0.0    |
|   tree   |  0.0132  |  0.0014  |  0.319   |  0.666   | 0.000117 |   0.0    |
|   car    |  0.122   |  0.238   |  0.101   |   0.0    |   0.54   |   0.0    |
|background|  0.682   |  0.106   |  0.188   |   0.0    |  0.0235  |   0.0    |
+----------+----------+----------+----------+----------+----------+----------+
|Precision |  0.713   |  0.806   |  0.763   |  0.666   |   0.54   |   0.0    |
+----------+----------+----------+----------+----------+----------+----------+
|  Recall  |  0.823   |  0.869   |  0.563   |  0.778   |  0.129   |   nan    |
+----------+----------+----------+----------+----------+----------+----------+
| F1 score |  0.764   |  0.836   |  0.648   |  0.717   |  0.208   |   nan    |
+----------+----------+----------+----------+----------+----------+----------+
Overall accuracy: 0.735884736605
One done
Accuracy of: 0.735884736605 with trees 100 max features 5 min samples per leaf 9
Accuracy of: 0.735291910551 with trees 100 max features 5 min samples per leaf 5
+----------+----------+----------+----------+----------+----------+----------+
|          | imp_surf | building | low_veg  |   tree   |   car    |background|
+----------+----------+----------+----------+----------+----------+----------+
| imp_surf |  0.713   |  0.103   |  0.148   |  0.0251  |  0.0115  |   0.0    |
| building |  0.0935  |  0.806   |  0.0856  |  0.0068  | 0.00844  |   0.0    |
| low_veg  |  0.042   |  0.021   |  0.763   |  0.173   | 0.000506 |   0.0    |
|   tree   |  0.0132  |  0.0014  |  0.319   |  0.666   | 0.000117 |   0.0    |
|   car    |  0.122   |  0.238   |  0.101   |   0.0    |   0.54   |   0.0    |
|background|  0.682   |  0.106   |  0.188   |   0.0    |  0.0235  |   0.0    |
+----------+----------+----------+----------+----------+----------+----------+
|Precision |  0.713   |  0.806   |  0.763   |  0.666   |   0.54   |   0.0    |
+----------+----------+----------+----------+----------+----------+----------+
|  Recall  |  0.823   |  0.869   |  0.563   |  0.778   |  0.129   |   nan    |
+----------+----------+----------+----------+----------+----------+----------+
| F1 score |  0.764   |  0.836   |  0.648   |  0.717   |  0.208   |   nan    |
+----------+----------+----------+----------+----------+----------+----------+
Overall accuracy: 0.735884736605
Test results:
/home/mousebaiker/semantic-segmentation/python/evaluation_tool.py:34: RuntimeWarning: invalid value encountered in true_divide
  f1_score = 2 * precision * recall/(precision + recall)
+----------+----------+----------+----------+----------+----------+----------+
|          | imp_surf | building | low_veg  |   tree   |   car    |background|
+----------+----------+----------+----------+----------+----------+----------+
| imp_surf |  0.705   |  0.191   |  0.0676  |  0.0153  |  0.0208  | 0.000161 |
| building |  0.101   |  0.853   |  0.023   | 0.00286  |  0.0189  | 0.00137  |
| low_veg  |  0.0902  |  0.0514  |  0.615   |  0.241   | 0.00255  | 0.000104 |
|   tree   |  0.0124  | 0.00449  |  0.236   |  0.747   | 0.00015  |   0.0    |
|   car    |  0.119   |  0.174   |  0.0359  |   0.0    |  0.638   |  0.0331  |
|background|   0.95   | 0.00629  |   0.0    |   0.0    |  0.044   |   0.0    |
+----------+----------+----------+----------+----------+----------+----------+
|Precision |  0.705   |  0.853   |  0.615   |  0.747   |  0.638   |   0.0    |
+----------+----------+----------+----------+----------+----------+----------+
|  Recall  |  0.851   |  0.747   |  0.464   |  0.845   |  0.114   |   0.0    |
+----------+----------+----------+----------+----------+----------+----------+
| F1 score |  0.771   |  0.796   |  0.529   |  0.793   |  0.193   |   nan    |
+----------+----------+----------+----------+----------+----------+----------+
Overall accuracy: 0.741385430319
