/home/mousebaiker/semantic-segmentation/contest/dsm/dsm_09cm_matching_area7.tif
dsm_09cm_matching_area7.tif (2557, 1887, 3) (2557, 1887, 3)
/home/mousebaiker/semantic-segmentation/contest/dsm/dsm_09cm_matching_area28.tif
dsm_09cm_matching_area28.tif (2567, 1917, 3) (2567, 1917, 3)
/home/mousebaiker/semantic-segmentation/contest/dsm/dsm_09cm_matching_area23.tif
dsm_09cm_matching_area23.tif (2546, 1903, 3) (2546, 1903, 3)
/home/mousebaiker/semantic-segmentation/contest/dsm/dsm_09cm_matching_area15.tif
dsm_09cm_matching_area15.tif (2565, 1919, 3) (2565, 1919, 3)
/home/mousebaiker/semantic-segmentation/contest/dsm/dsm_09cm_matching_area11.tif
dsm_09cm_matching_area11.tif (2566, 1893, 3) (2566, 1893, 3)
/home/mousebaiker/semantic-segmentation/contest/dsm/dsm_09cm_matching_area1.tif
dsm_09cm_matching_area1.tif (2569, 1919, 3) (2569, 1919, 3)
/home/mousebaiker/semantic-segmentation/contest/dsm/dsm_09cm_matching_area32.tif
dsm_09cm_matching_area32.tif (2555, 1980, 3) (2555, 1980, 3)
/home/mousebaiker/semantic-segmentation/contest/dsm/dsm_09cm_matching_area30.tif
dsm_09cm_matching_area30.tif (2563, 1934, 3) (2563, 1934, 3)
/home/mousebaiker/semantic-segmentation/contest/dsm/dsm_09cm_matching_area34.tif
dsm_09cm_matching_area34.tif (2555, 1388, 3) (2555, 1388, 3)
/home/mousebaiker/semantic-segmentation/contest/dsm/dsm_09cm_matching_area3.tif
dsm_09cm_matching_area3.tif (3007, 2006, 3) (3007, 2006, 3)
/home/mousebaiker/semantic-segmentation/contest/dsm/dsm_09cm_matching_area17.tif
dsm_09cm_matching_area17.tif (1281, 2336, 3) (1281, 2336, 3)
/home/mousebaiker/semantic-segmentation/contest/dsm/dsm_09cm_matching_area26.tif
dsm_09cm_matching_area26.tif (1783, 2995, 3) (1783, 2995, 3)
/home/mousebaiker/semantic-segmentation/contest/dsm/dsm_09cm_matching_area21.tif
dsm_09cm_matching_area21.tif (2546, 1903, 3) (2546, 1903, 3)
/home/mousebaiker/semantic-segmentation/contest/dsm/dsm_09cm_matching_area5.tif
dsm_09cm_matching_area5.tif (2557, 1887, 3) (2557, 1887, 3)
/home/mousebaiker/semantic-segmentation/contest/dsm/dsm_09cm_matching_area37.tif
dsm_09cm_matching_area37.tif (1995, 1996, 3) (1995, 1996, 3)
/home/mousebaiker/semantic-segmentation/contest/dsm/dsm_09cm_matching_area13.tif
dsm_09cm_matching_area13.tif (2558, 2818, 3) (2558, 2818, 3)
Done
(48256, 3) (48256,)
Done
(49216, 3) (49216,)
Done
(48450, 3) (48450,)
Done
(49024, 3) (49024,)
Done
(48573, 3) (48573,)
Done
(49216, 3) (49216,)
Done
(50363, 3) (50363,)
Done
(49408, 3) (49408,)
Done
(35318, 3) (35318,)
Done
(60351, 3) (60351,)
Done
(29888, 3) (29888,)
Done
(53222, 3) (53222,)
Done
(48450, 3) (48450,)
Done
(48256, 3) (48256,)
Done
(39701, 3) (39701,)
Done
(72064, 3) (72064,)
(488175, 3) (488175,) (131560, 3) (131560,) (160021, 3) (160021,)
Start crossvalidation
Accuracy of: 0.641030708422 with criterion gini max features 1 min samples per leaf 1
Accuracy of: 0.640308604439 with criterion entropy max features 1 min samples per leaf 1
Accuracy of: 0.667026451809 with criterion gini max features 3 min samples per leaf 5
Accuracy of: 0.638712374582 with criterion entropy max features 3 min samples per leaf 1
Accuracy of: 0.673160535117 with criterion entropy max features 1 min samples per leaf 5
Accuracy of: 0.671685922773 with criterion gini max features 1 min samples per leaf 5
Accuracy of: 0.66872909699 with criterion entropy max features 3 min samples per leaf 5
Accuracy of: 0.637952265126 with criterion gini max features 3 min samples per leaf 1
+----------+----------+----------+----------+----------+----------+----------+
|          | imp_surf | building | low_veg  |   tree   |   car    |background|
+----------+----------+----------+----------+----------+----------+----------+
| imp_surf |  0.643   |  0.176   |  0.0535  |  0.0163  |  0.0153  |  0.096   |
| building |   0.15   |  0.778   |  0.046   | 0.00719  |  0.0146  | 0.00446  |
| low_veg  |   0.13   |  0.0575  |   0.51   |  0.295   | 0.00332  | 0.00429  |
|   tree   |  0.0171  | 0.00499  |  0.249   |  0.727   | 0.000823 | 0.00125  |
|   car    |   0.14   |   0.24   |  0.027   | 0.00636  |  0.253   |  0.334   |
|background|   nan    |   nan    |   nan    |   nan    |   nan    |   nan    |
+----------+----------+----------+----------+----------+----------+----------+
|Precision |  0.643   |  0.778   |   0.51   |  0.727   |  0.253   |   nan    |
+----------+----------+----------+----------+----------+----------+----------+
|  Recall  |  0.774   |  0.709   |   0.45   |   0.8    |  0.122   |   0.0    |
+----------+----------+----------+----------+----------+----------+----------+
| F1 score |  0.702   |  0.742   |  0.478   |  0.762   |  0.165   |   nan    |
+----------+----------+----------+----------+----------+----------+----------+
Overall accuracy: 0.673160535117
+----------+----------+----------+----------+----------+----------+----------+
|          | imp_surf | building | low_veg  |   tree   |   car    |background|
+----------+----------+----------+----------+----------+----------+----------+
| imp_surf |  0.714   |   0.23   |   0.03   | 0.00879  |  0.0171  |   0.0    |
| building |  0.0914  |  0.893   |  0.0046  | 0.000804 | 0.00994  |   0.0    |
| low_veg  |  0.201   |  0.143   |  0.454   |  0.193   | 0.00907  |   0.0    |
|   tree   |  0.0144  |  0.0108  |  0.307   |  0.667   | 0.000857 |   0.0    |
|   car    |  0.147   |  0.486   |  0.012   | 0.00116  |  0.354   |   0.0    |
|background|   nan    |   nan    |   nan    |   nan    |   nan    |   nan    |
+----------+----------+----------+----------+----------+----------+----------+
|Precision |  0.714   |  0.893   |  0.454   |  0.667   |  0.354   |   nan    |
+----------+----------+----------+----------+----------+----------+----------+
|  Recall  |  0.843   |  0.788   |  0.418   |  0.768   |  0.136   |   nan    |
+----------+----------+----------+----------+----------+----------+----------+
| F1 score |  0.774   |  0.837   |  0.435   |  0.714   |  0.196   |   nan    |
+----------+----------+----------+----------+----------+----------+----------+
Overall accuracy: 0.77223656747
+----------+----------+----------+----------+----------+----------+----------+
|          | imp_surf | building | low_veg  |   tree   |   car    |background|
+----------+----------+----------+----------+----------+----------+----------+
| imp_surf |  0.714   |   0.1    |  0.151   |  0.0257  | 0.00881  |   0.0    |
| building |  0.166   |  0.707   |  0.111   | 0.00947  | 0.00716  |   0.0    |
| low_veg  |  0.0259  |  0.0169  |  0.792   |  0.164   | 0.000923 |   0.0    |
|   tree   | 0.00799  | 0.00619  |  0.373   |  0.613   | 0.00024  |   0.0    |
|   car    |  0.111   |  0.823   |  0.0414  | 0.000655 |  0.0244  |   0.0    |
|background|  0.664   |  0.336   |   0.0    |   0.0    |   0.0    |   0.0    |
+----------+----------+----------+----------+----------+----------+----------+
|Precision |  0.714   |  0.707   |  0.792   |  0.613   |  0.0244  |   0.0    |
+----------+----------+----------+----------+----------+----------+----------+
|  Recall  |  0.756   |  0.834   |  0.709   |  0.533   |  0.046   |   nan    |
+----------+----------+----------+----------+----------+----------+----------+
| F1 score |  0.735   |  0.765   |  0.748   |   0.57   |  0.0319  |   nan    |
+----------+----------+----------+----------+----------+----------+----------+
Overall accuracy: 0.720822848705
+----------+----------+----------+----------+----------+----------+----------+
|          | imp_surf | building | low_veg  |   tree   |   car    |background|
+----------+----------+----------+----------+----------+----------+----------+
| imp_surf |  0.616   |  0.129   |  0.207   |  0.0407  | 0.00803  |   0.0    |
| building |  0.0878  |  0.733   |  0.154   |  0.0189  | 0.00666  |   0.0    |
| low_veg  |  0.0719  |  0.0173  |  0.665   |  0.245   | 0.00101  |   0.0    |
|   tree   |  0.0158  | 0.00346  |  0.369   |  0.612   | 6.38e-05 |   0.0    |
|   car    |  0.0722  |  0.702   |  0.119   |  0.015   |  0.0912  |   0.0    |
|background|   0.0    |   1.0    |   0.0    |   0.0    |   0.0    |   0.0    |
+----------+----------+----------+----------+----------+----------+----------+
|Precision |  0.616   |  0.733   |  0.665   |  0.612   |  0.0912  |   0.0    |
+----------+----------+----------+----------+----------+----------+----------+
|  Recall  |  0.763   |  0.804   |  0.393   |  0.787   |  0.149   |   nan    |
+----------+----------+----------+----------+----------+----------+----------+
| F1 score |  0.682   |  0.767   |  0.494   |  0.688   |  0.113   |   nan    |
+----------+----------+----------+----------+----------+----------+----------+
Overall accuracy: 0.644381367185
